{
  "navigation" : {
    "Home": {
      "title": "О компании",
      "href": "/"
    },
    "Catalog" : {
      "title": "Доставка и Сборка",
      "href": "#"
    },
    "About" : {
      "title": "Гарантия",
      "href": "#"
    },
    "About1" : {
      "title": "Как купить",
      "href": "#"
    },
    "About2" : {
      "title": "Контакты",
      "href": "#"
    },
    "About3" : {
      "title": "Акции и скидки",
      "href": "#"
    }
  }
}